{"_embedded":{"attractions":[{"name":"Post Malone","type":"attraction","id":"K8vZ917KjPf","test":false,"url":"https://www.ticketmaster.com/post-malone-tickets/artist/2119390","locale":"en-us","externalLinks":{"itunes":[{"url":"https://itunes.apple.com/us/artist/id966309175"}],"wiki":[{"url":"https://en.wikipedia.org/wiki/Post_Malone"}],"musicbrainz":[{"id":"b1e26560-60e5-4236-bbdb-9aa5a8d5ee19"}]},"images":[{"ratio":"3_2","url":"https://s1.ticketm.net/dam/a/2f9/c9c2979c-9340-461a-937a-743b5aaed2f9_1108311_RETINA_PORTRAIT_3_2.jpg","width":640,"height":427,"fallback":false},{"ratio":"16_9","url":"https://s1.ticketm.net/dam/a/2f9/c9c2979c-9340-461a-937a-743b5aaed2f9_1108311_RETINA_LANDSCAPE_16_9.jpg","width":1136,"height":639,"fallback":false},{"ratio":"16_9","url":"https://s1.ticketm.net/dam/a/2f9/c9c2979c-9340-461a-937a-743b5aaed2f9_1108311_TABLET_LANDSCAPE_LARGE_16_9.jpg","width":2048,"height":1152,"fallback":false},{"ratio":"3_2","url":"https://s1.ticketm.net/dam/a/2f9/c9c2979c-9340-461a-937a-743b5aaed2f9_1108311_TABLET_LANDSCAPE_3_2.jpg","width":1024,"height":683,"fallback":false},{"ratio":"4_3","url":"https://s1.ticketm.net/dam/a/2f9/c9c2979c-9340-461a-937a-743b5aaed2f9_1108311_CUSTOM.jpg","width":305,"height":225,"fallback":false},{"ratio":"16_9","url":"https://s1.ticketm.net/dam/a/2f9/c9c2979c-9340-461a-937a-743b5aaed2f9_1108311_EVENT_DETAIL_PAGE_16_9.jpg","width":205,"height":115,"fallback":false},{"ratio":"16_9","url":"https://s1.ticketm.net/dam/a/2f9/c9c2979c-9340-461a-937a-743b5aaed2f9_1108311_RETINA_PORTRAIT_16_9.jpg","width":640,"height":360,"fallback":false},{"ratio":"3_2","url":"https://s1.ticketm.net/dam/a/2f9/c9c2979c-9340-461a-937a-743b5aaed2f9_1108311_ARTIST_PAGE_3_2.jpg","width":305,"height":203,"fallback":false},{"ratio":"16_9","url":"https://s1.ticketm.net/dam/a/2f9/c9c2979c-9340-461a-937a-743b5aaed2f9_1108311_TABLET_LANDSCAPE_16_9.jpg","width":1024,"height":576,"fallback":false},{"ratio":"16_9","url":"https://s1.ticketm.net/dam/a/2f9/c9c2979c-9340-461a-937a-743b5aaed2f9_1108311_RECOMENDATION_16_9.jpg","width":100,"height":56,"fallback":false}],"classifications":[{"primary":true,"segment":{"id":"KZFzniwnSyZfZ7v7nJ","name":"Music"},"genre":{"id":"KnvZfZ7vAv1","name":"Hip-Hop/Rap"},"subGenre":{"id":"KZazBEonSMnZfZ7vkdA","name":"Urban"},"type":{"id":"KZAyXgnZfZ7v7nI","name":"Undefined"},"subType":{"id":"KZFzBErXgnZfZ7v7lJ","name":"Undefined"},"family":false}],"upcomingEvents":{"_total":45,"tmr":2,"ticketmaster":43},"_links":{"self":{"href":"/discovery/v2/attractions/K8vZ917KjPf?locale=en-us"}}},{"name":"Wiz Khalifa","type":"attraction","id":"K8vZ917GEEf","test":false,"url":"https://www.ticketmaster.com/wiz-khalifa-tickets/artist/1256402","locale":"en-us","externalLinks":{"twitter":[{"url":"https://twitter.com/wizkhalifa"}],"lastfm":[{"url":"http://www.last.fm/music/Wiz+Khalifa"}],"facebook":[{"url":"https://www.facebook.com/wizkhalifa"}],"wiki":[{"url":"https://en.wikipedia.org/wiki/Wiz_Khalifa"}],"musicbrainz":[{"id":"f5dfa020-ad69-41cd-b3d4-fd7af0414e94"}],"homepage":[{"url":"http://www.wizkhalifa.com/"}]},"images":[{"ratio":"16_9","url":"https://s1.ticketm.net/dam/a/5bb/3ee3ef95-d604-4c65-a9bb-ab27f4e9f5bb_1090041_RECOMENDATION_16_9.jpg","width":100,"height":56,"fallback":false},{"ratio":"16_9","url":"https://s1.ticketm.net/dam/a/5bb/3ee3ef95-d604-4c65-a9bb-ab27f4e9f5bb_1090041_RETINA_LANDSCAPE_16_9.jpg","width":1136,"height":639,"fallback":false},{"ratio":"16_9","url":"https://s1.ticketm.net/dam/a/5bb/3ee3ef95-d604-4c65-a9bb-ab27f4e9f5bb_1090041_RETINA_PORTRAIT_16_9.jpg","width":640,"height":360,"fallback":false},{"ratio":"16_9","url":"https://s1.ticketm.net/dam/a/5bb/3ee3ef95-d604-4c65-a9bb-ab27f4e9f5bb_1090041_EVENT_DETAIL_PAGE_16_9.jpg","width":205,"height":115,"fallback":false},{"ratio":"16_9","url":"https://s1.ticketm.net/dam/a/5bb/3ee3ef95-d604-4c65-a9bb-ab27f4e9f5bb_1090041_TABLET_LANDSCAPE_16_9.jpg","width":1024,"height":576,"fallback":false},{"ratio":"16_9","url":"https://s1.ticketm.net/dam/a/5bb/3ee3ef95-d604-4c65-a9bb-ab27f4e9f5bb_1090041_TABLET_LANDSCAPE_LARGE_16_9.jpg","width":2048,"height":1152,"fallback":false},{"ratio":"3_2","url":"https://s1.ticketm.net/dam/a/5bb/3ee3ef95-d604-4c65-a9bb-ab27f4e9f5bb_1090041_TABLET_LANDSCAPE_3_2.jpg","width":1024,"height":683,"fallback":false},{"ratio":"4_3","url":"https://s1.ticketm.net/dam/a/5bb/3ee3ef95-d604-4c65-a9bb-ab27f4e9f5bb_1090041_CUSTOM.jpg","width":305,"height":225,"fallback":false},{"ratio":"3_2","url":"https://s1.ticketm.net/dam/a/5bb/3ee3ef95-d604-4c65-a9bb-ab27f4e9f5bb_1090041_RETINA_PORTRAIT_3_2.jpg","width":640,"height":427,"fallback":false},{"ratio":"3_2","url":"https://s1.ticketm.net/dam/a/5bb/3ee3ef95-d604-4c65-a9bb-ab27f4e9f5bb_1090041_ARTIST_PAGE_3_2.jpg","width":305,"height":203,"fallback":false}],"classifications":[{"primary":true,"segment":{"id":"KZFzniwnSyZfZ7v7nJ","name":"Music"},"genre":{"id":"KnvZfZ7vAv1","name":"Hip-Hop/Rap"},"subGenre":{"id":"KZazBEonSMnZfZ7vkdA","name":"Urban"},"type":{"id":"KZAyXgnZfZ7v7nI","name":"Undefined"},"subType":{"id":"KZFzBErXgnZfZ7v7lJ","name":"Undefined"},"family":false}],"upcomingEvents":{"_total":20,"tmr":3,"ticketmaster":17},"_links":{"self":{"href":"/discovery/v2/attractions/K8vZ917GEEf?locale=en-us"}}},{"name":"Chance the Rapper","type":"attraction","id":"K8vZ9172T9V","test":false,"url":"https://www.ticketmaster.com/chance-the-rapper-tickets/artist/1750234","locale":"en-us","externalLinks":{"youtube":[{"url":"https://www.youtube.com/user/ChanceThaRapper"}],"twitter":[{"url":"https://twitter.com/CHANCETHERAPPER"}],"facebook":[{"url":"https://www.facebook.com/chancetherapper"}],"wiki":[{"url":"https://en.wikipedia.org/wiki/Chance_the_Rapper"}],"musicbrainz":[{"id":"373a4c98-a46b-48e4-86ec-f6ca65b4f438"}],"homepage":[{"url":"http://chanceraps.com/"}]},"images":[{"ratio":"16_9","url":"https://s1.ticketm.net/dam/a/e4a/59abded5-9743-47ca-b90e-e1d1f4c7de4a_1117351_TABLET_LANDSCAPE_16_9.jpg","width":1024,"height":576,"fallback":false},{"ratio":"16_9","url":"https://s1.ticketm.net/dam/a/e4a/59abded5-9743-47ca-b90e-e1d1f4c7de4a_1117351_RETINA_LANDSCAPE_16_9.jpg","width":1136,"height":639,"fallback":false},{"ratio":"16_9","url":"https://s1.ticketm.net/dam/a/e4a/59abded5-9743-47ca-b90e-e1d1f4c7de4a_1117351_RETINA_PORTRAIT_16_9.jpg","width":640,"height":360,"fallback":false},{"ratio":"3_2","url":"https://s1.ticketm.net/dam/a/e4a/59abded5-9743-47ca-b90e-e1d1f4c7de4a_1117351_RETINA_PORTRAIT_3_2.jpg","width":640,"height":427,"fallback":false},{"ratio":"4_3","url":"https://s1.ticketm.net/dam/a/e4a/59abded5-9743-47ca-b90e-e1d1f4c7de4a_1117351_CUSTOM.jpg","width":305,"height":225,"fallback":false},{"ratio":"16_9","url":"https://s1.ticketm.net/dam/a/e4a/59abded5-9743-47ca-b90e-e1d1f4c7de4a_1117351_EVENT_DETAIL_PAGE_16_9.jpg","width":205,"height":115,"fallback":false},{"ratio":"16_9","url":"https://s1.ticketm.net/dam/a/e4a/59abded5-9743-47ca-b90e-e1d1f4c7de4a_1117351_TABLET_LANDSCAPE_LARGE_16_9.jpg","width":2048,"height":1152,"fallback":false},{"ratio":"3_2","url":"https://s1.ticketm.net/dam/a/e4a/59abded5-9743-47ca-b90e-e1d1f4c7de4a_1117351_TABLET_LANDSCAPE_3_2.jpg","width":1024,"height":683,"fallback":false},{"ratio":"16_9","url":"https://s1.ticketm.net/dam/a/e4a/59abded5-9743-47ca-b90e-e1d1f4c7de4a_1117351_RECOMENDATION_16_9.jpg","width":100,"height":56,"fallback":false},{"ratio":"3_2","url":"https://s1.ticketm.net/dam/a/e4a/59abded5-9743-47ca-b90e-e1d1f4c7de4a_1117351_ARTIST_PAGE_3_2.jpg","width":305,"height":203,"fallback":false}],"classifications":[{"primary":true,"segment":{"id":"KZFzniwnSyZfZ7v7nJ","name":"Music"},"genre":{"id":"KnvZfZ7vAv1","name":"Hip-Hop/Rap"},"subGenre":{"id":"KZazBEonSMnZfZ7vkdA","name":"Urban"},"type":{"id":"KZAyXgnZfZ7v7nI","name":"Undefined"},"subType":{"id":"KZFzBErXgnZfZ7v7lJ","name":"Undefined"},"family":false}],"upcomingEvents":{"_total":41,"tmr":9,"ticketmaster":32},"_links":{"self":{"href":"/discovery/v2/attractions/K8vZ9172T9V?locale=en-us"}}},{"name":"Kevin Gates","type":"attraction","id":"K8vZ9172zj0","test":false,"url":"https://www.ticketmaster.com/kevin-gates-tickets/artist/1739199","locale":"en-us","externalLinks":{"twitter":[{"url":"https://twitter.com/Kevin_Gates"}],"wiki":[{"url":"https://en.wikipedia.org/wiki/Kevin_Gates"}],"instagram":[{"url":"http://instagram.com/iamkevingates"}],"musicbrainz":[{"id":"0c41b966-12e8-4c9b-87ea-af47798987b6"}]},"images":[{"ratio":"16_9","url":"https://s1.ticketm.net/dam/a/db5/a915c3d3-c417-4d1a-b033-67c66f105db5_1103011_RECOMENDATION_16_9.jpg","width":100,"height":56,"fallback":false},{"ratio":"16_9","url":"https://s1.ticketm.net/dam/a/db5/a915c3d3-c417-4d1a-b033-67c66f105db5_1103011_TABLET_LANDSCAPE_16_9.jpg","width":1024,"height":576,"fallback":false},{"ratio":"16_9","url":"https://s1.ticketm.net/dam/a/db5/a915c3d3-c417-4d1a-b033-67c66f105db5_1103011_RETINA_PORTRAIT_16_9.jpg","width":640,"height":360,"fallback":false},{"ratio":"16_9","url":"https://s1.ticketm.net/dam/a/db5/a915c3d3-c417-4d1a-b033-67c66f105db5_1103011_TABLET_LANDSCAPE_LARGE_16_9.jpg","width":2048,"height":1152,"fallback":false},{"ratio":"16_9","url":"https://s1.ticketm.net/dam/a/db5/a915c3d3-c417-4d1a-b033-67c66f105db5_1103011_EVENT_DETAIL_PAGE_16_9.jpg","width":205,"height":115,"fallback":false},{"ratio":"3_2","url":"https://s1.ticketm.net/dam/a/db5/a915c3d3-c417-4d1a-b033-67c66f105db5_1103011_RETINA_PORTRAIT_3_2.jpg","width":640,"height":427,"fallback":false},{"ratio":"4_3","url":"https://s1.ticketm.net/dam/a/db5/a915c3d3-c417-4d1a-b033-67c66f105db5_1103011_CUSTOM.jpg","width":305,"height":225,"fallback":false},{"ratio":"3_2","url":"https://s1.ticketm.net/dam/a/db5/a915c3d3-c417-4d1a-b033-67c66f105db5_1103011_ARTIST_PAGE_3_2.jpg","width":305,"height":203,"fallback":false},{"ratio":"16_9","url":"https://s1.ticketm.net/dam/a/db5/a915c3d3-c417-4d1a-b033-67c66f105db5_1103011_RETINA_LANDSCAPE_16_9.jpg","width":1136,"height":639,"fallback":false},{"ratio":"3_2","url":"https://s1.ticketm.net/dam/a/db5/a915c3d3-c417-4d1a-b033-67c66f105db5_1103011_TABLET_LANDSCAPE_3_2.jpg","width":1024,"height":683,"fallback":false}],"classifications":[{"primary":true,"segment":{"id":"KZFzniwnSyZfZ7v7nJ","name":"Music"},"genre":{"id":"KnvZfZ7vAv1","name":"Hip-Hop/Rap"},"subGenre":{"id":"KZazBEonSMnZfZ7vkdA","name":"Urban"},"type":{"id":"KZAyXgnZfZ7v7nI","name":"Undefined"},"subType":{"id":"KZFzBErXgnZfZ7v7lJ","name":"Undefined"},"family":false}],"upcomingEvents":{"_total":38,"tmr":21,"ticketweb":2,"ticketmaster":15},"_links":{"self":{"href":"/discovery/v2/attractions/K8vZ9172zj0?locale=en-us"}}},{"name":"Cardi B","type":"attraction","id":"K8vZ917fNfV","test":false,"url":"https://www.ticketmaster.com/cardi-b-tickets/artist/2223707","locale":"en-us","externalLinks":{"twitter":[{"url":"https://twitter.com/iamcardib"}],"instagram":[{"url":"https://www.instagram.com/iamcardib"},{"url":"https://www.instagram.com/iamcardib/"}],"musicbrainz":[{"id":"2f3c4d70-0462-40da-bba3-0aec5772c556"}],"homepage":[{"url":"http://iamcardib.com/"}]},"images":[{"ratio":"3_2","url":"https://s1.ticketm.net/dam/a/889/730b3fe6-0831-4d69-ae67-1748413c6889_982471_RETINA_PORTRAIT_3_2.jpg","width":640,"height":427,"fallback":false},{"ratio":"16_9","url":"https://s1.ticketm.net/dam/a/889/730b3fe6-0831-4d69-ae67-1748413c6889_982471_EVENT_DETAIL_PAGE_16_9.jpg","width":205,"height":115,"fallback":false},{"ratio":"4_3","url":"https://s1.ticketm.net/dam/a/889/730b3fe6-0831-4d69-ae67-1748413c6889_982471_CUSTOM.jpg","width":305,"height":225,"fallback":false},{"ratio":"3_2","url":"https://s1.ticketm.net/dam/a/889/730b3fe6-0831-4d69-ae67-1748413c6889_982471_ARTIST_PAGE_3_2.jpg","width":305,"height":203,"fallback":false},{"ratio":"16_9","url":"https://s1.ticketm.net/dam/a/889/730b3fe6-0831-4d69-ae67-1748413c6889_982471_RETINA_LANDSCAPE_16_9.jpg","width":1136,"height":639,"fallback":false},{"ratio":"3_2","url":"https://s1.ticketm.net/dam/a/889/730b3fe6-0831-4d69-ae67-1748413c6889_982471_TABLET_LANDSCAPE_3_2.jpg","width":1024,"height":683,"fallback":false},{"ratio":"16_9","url":"https://s1.ticketm.net/dam/a/889/730b3fe6-0831-4d69-ae67-1748413c6889_982471_TABLET_LANDSCAPE_LARGE_16_9.jpg","width":2048,"height":1152,"fallback":false},{"ratio":"16_9","url":"https://s1.ticketm.net/dam/a/889/730b3fe6-0831-4d69-ae67-1748413c6889_982471_RETINA_PORTRAIT_16_9.jpg","width":640,"height":360,"fallback":false},{"ratio":"16_9","url":"https://s1.ticketm.net/dam/a/889/730b3fe6-0831-4d69-ae67-1748413c6889_982471_TABLET_LANDSCAPE_16_9.jpg","width":1024,"height":576,"fallback":false},{"ratio":"16_9","url":"https://s1.ticketm.net/dam/a/889/730b3fe6-0831-4d69-ae67-1748413c6889_982471_RECOMENDATION_16_9.jpg","width":100,"height":56,"fallback":false}],"classifications":[{"primary":true,"segment":{"id":"KZFzniwnSyZfZ7v7nJ","name":"Music"},"genre":{"id":"KnvZfZ7vAv1","name":"Hip-Hop/Rap"},"subGenre":{"id":"KZazBEonSMnZfZ7vkvl","name":"Hip-Hop/Rap"},"type":{"id":"KZAyXgnZfZ7v7la","name":"Individual"},"subType":{"id":"KZFzBErXgnZfZ7vAd7","name":"Musician"},"family":false}],"upcomingEvents":{"_total":11,"tmr":2,"ticketmaster":9},"_links":{"self":{"href":"/discovery/v2/attractions/K8vZ917fNfV?locale=en-us"}}},{"name":"NF","type":"attraction","id":"K8vZ917KEwV","test":false,"url":"https://www.ticketmaster.com/nf-tickets/artist/2139405","locale":"en-us","externalLinks":{"twitter":[{"url":"https://twitter.com/nfrealmusic"}],"musicbrainz":[{"id":"e098074f-2c8d-4560-95da-2a3bff556f1f"}]},"images":[{"ratio":"16_9","url":"https://s1.ticketm.net/dam/a/258/49482361-24a9-4728-98bc-3bbb09fb3258_1068631_EVENT_DETAIL_PAGE_16_9.jpg","width":205,"height":115,"fallback":false},{"ratio":"3_2","url":"https://s1.ticketm.net/dam/a/258/49482361-24a9-4728-98bc-3bbb09fb3258_1068631_TABLET_LANDSCAPE_3_2.jpg","width":1024,"height":683,"fallback":false},{"ratio":"3_2","url":"https://s1.ticketm.net/dam/a/258/49482361-24a9-4728-98bc-3bbb09fb3258_1068631_ARTIST_PAGE_3_2.jpg","width":305,"height":203,"fallback":false},{"ratio":"16_9","url":"https://s1.ticketm.net/dam/a/258/49482361-24a9-4728-98bc-3bbb09fb3258_1068631_RECOMENDATION_16_9.jpg","width":100,"height":56,"fallback":false},{"ratio":"16_9","url":"https://s1.ticketm.net/dam/a/258/49482361-24a9-4728-98bc-3bbb09fb3258_1068631_RETINA_PORTRAIT_16_9.jpg","width":640,"height":360,"fallback":false},{"ratio":"16_9","url":"https://s1.ticketm.net/dam/a/258/49482361-24a9-4728-98bc-3bbb09fb3258_1068631_TABLET_LANDSCAPE_16_9.jpg","width":1024,"height":576,"fallback":false},{"ratio":"4_3","url":"https://s1.ticketm.net/dam/a/258/49482361-24a9-4728-98bc-3bbb09fb3258_1068631_CUSTOM.jpg","width":305,"height":225,"fallback":false},{"ratio":"3_2","url":"https://s1.ticketm.net/dam/a/258/49482361-24a9-4728-98bc-3bbb09fb3258_1068631_RETINA_PORTRAIT_3_2.jpg","width":640,"height":427,"fallback":false},{"ratio":"16_9","url":"https://s1.ticketm.net/dam/a/258/49482361-24a9-4728-98bc-3bbb09fb3258_1068631_TABLET_LANDSCAPE_LARGE_16_9.jpg","width":2048,"height":1152,"fallback":false},{"ratio":"16_9","url":"https://s1.ticketm.net/dam/a/258/49482361-24a9-4728-98bc-3bbb09fb3258_1068631_RETINA_LANDSCAPE_16_9.jpg","width":1136,"height":639,"fallback":false}],"classifications":[{"primary":true,"segment":{"id":"KZFzniwnSyZfZ7v7nJ","name":"Music"},"genre":{"id":"KnvZfZ7vAv1","name":"Hip-Hop/Rap"},"subGenre":{"id":"KZazBEonSMnZfZ7vkdA","name":"Urban"},"type":{"id":"KZAyXgnZfZ7v7nI","name":"Undefined"},"subType":{"id":"KZFzBErXgnZfZ7v7lJ","name":"Undefined"},"family":false}],"upcomingEvents":{"_total":62,"mfx-nl":1,"tmr":12,"mfx-de":10,"ticketmaster":39},"_links":{"self":{"href":"/discovery/v2/attractions/K8vZ917KEwV?locale=en-us"}}},{"name":"Bad Bunny","type":"attraction","id":"K8vZ9174l1f","test":false,"url":"https://www.ticketmaster.com/bad-bunny-tickets/artist/2317395","locale":"en-us","externalLinks":{"youtube":[{"url":"https://www.youtube.com/channel/UCmBA_wu8xGg1OfOkfW13Q0Q"}],"twitter":[{"url":"https://twitter.com/badbunnypr"}],"itunes":[{"url":"https://itunes.apple.com/us/artist/id1126808565"}],"facebook":[{"url":"https://www.facebook.com/BadBunyPR"}],"instagram":[{"url":"https://www.instagram.com/badbunnypr/"}],"musicbrainz":[{"id":"89aa5ecb-59ad-46f5-b3eb-2d424e941f19"}],"homepage":[{"url":"https://badbunny.pro/"}]},"images":[{"ratio":"16_9","url":"https://s1.ticketm.net/dam/a/3d1/ac6e19d2-2bf7-4035-bb42-4deae968f3d1_1026531_EVENT_DETAIL_PAGE_16_9.jpg","width":205,"height":115,"fallback":false},{"ratio":"16_9","url":"https://s1.ticketm.net/dam/a/3d1/ac6e19d2-2bf7-4035-bb42-4deae968f3d1_1026531_RETINA_LANDSCAPE_16_9.jpg","width":1136,"height":639,"fallback":false},{"ratio":"3_2","url":"https://s1.ticketm.net/dam/a/3d1/ac6e19d2-2bf7-4035-bb42-4deae968f3d1_1026531_RETINA_PORTRAIT_3_2.jpg","width":640,"height":427,"fallback":false},{"ratio":"16_9","url":"https://s1.ticketm.net/dam/a/3d1/ac6e19d2-2bf7-4035-bb42-4deae968f3d1_1026531_RETINA_PORTRAIT_16_9.jpg","width":640,"height":360,"fallback":false},{"ratio":"16_9","url":"https://s1.ticketm.net/dam/a/3d1/ac6e19d2-2bf7-4035-bb42-4deae968f3d1_1026531_TABLET_LANDSCAPE_LARGE_16_9.jpg","width":2048,"height":1152,"fallback":false},{"ratio":"3_2","url":"https://s1.ticketm.net/dam/a/3d1/ac6e19d2-2bf7-4035-bb42-4deae968f3d1_1026531_TABLET_LANDSCAPE_3_2.jpg","width":1024,"height":683,"fallback":false},{"ratio":"3_2","url":"https://s1.ticketm.net/dam/a/3d1/ac6e19d2-2bf7-4035-bb42-4deae968f3d1_1026531_ARTIST_PAGE_3_2.jpg","width":305,"height":203,"fallback":false},{"ratio":"16_9","url":"https://s1.ticketm.net/dam/a/3d1/ac6e19d2-2bf7-4035-bb42-4deae968f3d1_1026531_RECOMENDATION_16_9.jpg","width":100,"height":56,"fallback":false},{"ratio":"4_3","url":"https://s1.ticketm.net/dam/a/3d1/ac6e19d2-2bf7-4035-bb42-4deae968f3d1_1026531_CUSTOM.jpg","width":305,"height":225,"fallback":false},{"ratio":"16_9","url":"https://s1.ticketm.net/dam/a/3d1/ac6e19d2-2bf7-4035-bb42-4deae968f3d1_1026531_TABLET_LANDSCAPE_16_9.jpg","width":1024,"height":576,"fallback":false}],"classifications":[{"primary":true,"segment":{"id":"KZFzniwnSyZfZ7v7nJ","name":"Music"},"genre":{"id":"KnvZfZ7vAv1","name":"Hip-Hop/Rap"},"subGenre":{"id":"KZazBEonSMnZfZ7vke1","name":"Latin Hip-Hop"},"type":{"id":"KZAyXgnZfZ7v7la","name":"Individual"},"subType":{"id":"KZFzBErXgnZfZ7vAd7","name":"Musician"},"family":false}],"upcomingEvents":{"_total":24,"tmr":5,"ticketmaster":19},"_links":{"self":{"href":"/discovery/v2/attractions/K8vZ9174l1f?locale=en-us"}}},{"name":"Anuel AA","type":"attraction","id":"K8vZ9179r_f","test":false,"url":"https://www.ticketmaster.com/anuel-aa-tickets/artist/2553245","locale":"en-us","externalLinks":{"twitter":[{"url":"https://twitter.com/anuel_2blea"}],"itunes":[{"url":"https://itunes.apple.com/us/artist/id996166916"}],"facebook":[{"url":"https://www.facebook.com/Anuel2bleAofficial"}],"instagram":[{"url":"https://www.instagram.com/anuel_2blea/"}],"musicbrainz":[{"id":"87a75fc3-59e7-4598-925c-8e230bce5db9"}]},"images":[{"ratio":"16_9","url":"https://s1.ticketm.net/dam/a/19e/2d9d0203-47af-437f-bb64-f1a1394f019e_1108541_TABLET_LANDSCAPE_LARGE_16_9.jpg","width":2048,"height":1152,"fallback":false},{"ratio":"16_9","url":"https://s1.ticketm.net/dam/a/19e/2d9d0203-47af-437f-bb64-f1a1394f019e_1108541_RECOMENDATION_16_9.jpg","width":100,"height":56,"fallback":false},{"ratio":"16_9","url":"https://s1.ticketm.net/dam/a/19e/2d9d0203-47af-437f-bb64-f1a1394f019e_1108541_RETINA_PORTRAIT_16_9.jpg","width":640,"height":360,"fallback":false},{"ratio":"3_2","url":"https://s1.ticketm.net/dam/a/19e/2d9d0203-47af-437f-bb64-f1a1394f019e_1108541_RETINA_PORTRAIT_3_2.jpg","width":640,"height":427,"fallback":false},{"ratio":"16_9","url":"https://s1.ticketm.net/dam/a/19e/2d9d0203-47af-437f-bb64-f1a1394f019e_1108541_EVENT_DETAIL_PAGE_16_9.jpg","width":205,"height":115,"fallback":false},{"ratio":"4_3","url":"https://s1.ticketm.net/dam/a/19e/2d9d0203-47af-437f-bb64-f1a1394f019e_1108541_CUSTOM.jpg","width":305,"height":225,"fallback":false},{"ratio":"16_9","url":"https://s1.ticketm.net/dam/a/19e/2d9d0203-47af-437f-bb64-f1a1394f019e_1108541_RETINA_LANDSCAPE_16_9.jpg","width":1136,"height":639,"fallback":false},{"ratio":"3_2","url":"https://s1.ticketm.net/dam/a/19e/2d9d0203-47af-437f-bb64-f1a1394f019e_1108541_ARTIST_PAGE_3_2.jpg","width":305,"height":203,"fallback":false},{"ratio":"3_2","url":"https://s1.ticketm.net/dam/a/19e/2d9d0203-47af-437f-bb64-f1a1394f019e_1108541_TABLET_LANDSCAPE_3_2.jpg","width":1024,"height":683,"fallback":false},{"ratio":"16_9","url":"https://s1.ticketm.net/dam/a/19e/2d9d0203-47af-437f-bb64-f1a1394f019e_1108541_TABLET_LANDSCAPE_16_9.jpg","width":1024,"height":576,"fallback":false}],"classifications":[{"primary":true,"segment":{"id":"KZFzniwnSyZfZ7v7nJ","name":"Music"},"genre":{"id":"KnvZfZ7vAv1","name":"Hip-Hop/Rap"},"subGenre":{"id":"KZazBEonSMnZfZ7vkvl","name":"Hip-Hop/Rap"},"type":{"id":"KZAyXgnZfZ7v7la","name":"Individual"},"subType":{"id":"KZFzBErXgnZfZ7vAd7","name":"Musician"},"family":false}],"upcomingEvents":{"_total":12,"ticketmaster":12},"_links":{"self":{"href":"/discovery/v2/attractions/K8vZ9179r_f?locale=en-us"}}},{"name":"21 Savage","type":"attraction","id":"K8vZ917fAP7","test":false,"url":"https://www.ticketmaster.com/21-savage-tickets/artist/2181837","locale":"en-us","externalLinks":{"youtube":[{"url":"https://www.youtube.com/channel/UCOjEHmBKwdS7joWpW0VrXkg"}],"twitter":[{"url":"https://twitter.com/21savage"}],"facebook":[{"url":"https://www.facebook.com/21Savage"}],"wiki":[{"url":"https://en.wikipedia.org/wiki/21_Savage"}],"instagram":[{"url":"https://www.instagram.com/21savage"},{"url":"https://www.instagram.com/21savage/"}],"musicbrainz":[{"id":"37b2cb82-ef79-4d46-a184-a549450aa231"}],"homepage":[{"url":"http://www.21savage.com/"}]},"images":[{"ratio":"16_9","url":"https://s1.ticketm.net/dam/a/020/c9b69286-d7d8-4a1d-bc3e-17bae941a020_1045761_EVENT_DETAIL_PAGE_16_9.jpg","width":205,"height":115,"fallback":false},{"ratio":"16_9","url":"https://s1.ticketm.net/dam/a/020/c9b69286-d7d8-4a1d-bc3e-17bae941a020_1045761_TABLET_LANDSCAPE_LARGE_16_9.jpg","width":2048,"height":1152,"fallback":false},{"ratio":"16_9","url":"https://s1.ticketm.net/dam/a/020/c9b69286-d7d8-4a1d-bc3e-17bae941a020_1045761_TABLET_LANDSCAPE_16_9.jpg","width":1024,"height":576,"fallback":false},{"ratio":"16_9","url":"https://s1.ticketm.net/dam/a/020/c9b69286-d7d8-4a1d-bc3e-17bae941a020_1045761_RETINA_LANDSCAPE_16_9.jpg","width":1136,"height":639,"fallback":false},{"ratio":"3_2","url":"https://s1.ticketm.net/dam/a/020/c9b69286-d7d8-4a1d-bc3e-17bae941a020_1045761_TABLET_LANDSCAPE_3_2.jpg","width":1024,"height":683,"fallback":false},{"ratio":"3_2","url":"https://s1.ticketm.net/dam/a/020/c9b69286-d7d8-4a1d-bc3e-17bae941a020_1045761_RETINA_PORTRAIT_3_2.jpg","width":640,"height":427,"fallback":false},{"ratio":"4_3","url":"https://s1.ticketm.net/dam/a/020/c9b69286-d7d8-4a1d-bc3e-17bae941a020_1045761_CUSTOM.jpg","width":305,"height":225,"fallback":false},{"ratio":"3_2","url":"https://s1.ticketm.net/dam/a/020/c9b69286-d7d8-4a1d-bc3e-17bae941a020_1045761_ARTIST_PAGE_3_2.jpg","width":305,"height":203,"fallback":false},{"ratio":"16_9","url":"https://s1.ticketm.net/dam/a/020/c9b69286-d7d8-4a1d-bc3e-17bae941a020_1045761_RECOMENDATION_16_9.jpg","width":100,"height":56,"fallback":false},{"ratio":"16_9","url":"https://s1.ticketm.net/dam/a/020/c9b69286-d7d8-4a1d-bc3e-17bae941a020_1045761_RETINA_PORTRAIT_16_9.jpg","width":640,"height":360,"fallback":false}],"classifications":[{"primary":true,"segment":{"id":"KZFzniwnSyZfZ7v7nJ","name":"Music"},"genre":{"id":"KnvZfZ7vAv1","name":"Hip-Hop/Rap"},"subGenre":{"id":"KZazBEonSMnZfZ7vkvl","name":"Hip-Hop/Rap"},"type":{"id":"KZAyXgnZfZ7v7la","name":"Individual"},"subType":{"id":"KZFzBErXgnZfZ7vAd7","name":"Musician"},"family":false}],"upcomingEvents":{"_total":16,"tmr":4,"ticketmaster":12},"_links":{"self":{"href":"/discovery/v2/attractions/K8vZ917fAP7?locale=en-us"}}},{"name":"Drake","type":"attraction","id":"K8vZ917Gp47","test":false,"url":"https://www.ticketmaster.com/drake-tickets/artist/1319371","locale":"en-us","externalLinks":{"youtube":[{"url":"https://www.youtube.com/user/DrakeVEVO"},{"url":"https://www.youtube.com/user/DrakeOfficial"}],"twitter":[{"url":"https://twitter.com/drake"}],"itunes":[{"url":"https://itunes.apple.com/us/artist/id271256"}],"lastfm":[{"url":"https://www.last.fm/music/Drake"}],"facebook":[{"url":"https://www.facebook.com/Drake"}],"instagram":[{"url":"https://www.instagram.com/champagnepapi/"},{"url":"https://instagram.com/champagnepapi"}],"musicbrainz":[{"id":"9fff2f8a-21e6-47de-a2b8-7f449929d43f"}],"homepage":[{"url":"http://www.drakeofficial.com/"}]},"images":[{"ratio":"3_2","url":"https://s1.ticketm.net/dam/a/e56/f259d5ad-0c4a-4d2e-9ceb-c395fb15de56_997321_TABLET_LANDSCAPE_3_2.jpg","width":1024,"height":683,"fallback":false},{"ratio":"16_9","url":"https://s1.ticketm.net/dam/a/e56/f259d5ad-0c4a-4d2e-9ceb-c395fb15de56_997321_RETINA_LANDSCAPE_16_9.jpg","width":1136,"height":639,"fallback":false},{"ratio":"3_2","url":"https://s1.ticketm.net/dam/a/e56/f259d5ad-0c4a-4d2e-9ceb-c395fb15de56_997321_ARTIST_PAGE_3_2.jpg","width":305,"height":203,"fallback":false},{"ratio":"3_2","url":"https://s1.ticketm.net/dam/a/e56/f259d5ad-0c4a-4d2e-9ceb-c395fb15de56_997321_RETINA_PORTRAIT_3_2.jpg","width":640,"height":427,"fallback":false},{"ratio":"16_9","url":"https://s1.ticketm.net/dam/a/e56/f259d5ad-0c4a-4d2e-9ceb-c395fb15de56_997321_TABLET_LANDSCAPE_LARGE_16_9.jpg","width":2048,"height":1152,"fallback":false},{"ratio":"16_9","url":"https://s1.ticketm.net/dam/a/e56/f259d5ad-0c4a-4d2e-9ceb-c395fb15de56_997321_RECOMENDATION_16_9.jpg","width":100,"height":56,"fallback":false},{"ratio":"4_3","url":"https://s1.ticketm.net/dam/a/e56/f259d5ad-0c4a-4d2e-9ceb-c395fb15de56_997321_CUSTOM.jpg","width":305,"height":225,"fallback":false},{"ratio":"16_9","url":"https://s1.ticketm.net/dam/a/e56/f259d5ad-0c4a-4d2e-9ceb-c395fb15de56_997321_EVENT_DETAIL_PAGE_16_9.jpg","width":205,"height":115,"fallback":false},{"ratio":"16_9","url":"https://s1.ticketm.net/dam/a/e56/f259d5ad-0c4a-4d2e-9ceb-c395fb15de56_997321_TABLET_LANDSCAPE_16_9.jpg","width":1024,"height":576,"fallback":false},{"ratio":"16_9","url":"https://s1.ticketm.net/dam/a/e56/f259d5ad-0c4a-4d2e-9ceb-c395fb15de56_997321_RETINA_PORTRAIT_16_9.jpg","width":640,"height":360,"fallback":false}],"classifications":[{"primary":true,"segment":{"id":"KZFzniwnSyZfZ7v7nJ","name":"Music"},"genre":{"id":"KnvZfZ7vAv1","name":"Hip-Hop/Rap"},"subGenre":{"id":"KZazBEonSMnZfZ7vkdA","name":"Urban"},"type":{"id":"KZAyXgnZfZ7v7nI","name":"Undefined"},"subType":{"id":"KZFzBErXgnZfZ7v7lJ","name":"Undefined"},"family":false}],"upcomingEvents":{"_total":2,"ticketmaster":2},"_links":{"self":{"href":"/discovery/v2/attractions/K8vZ917Gp47?locale=en-us"}}}]},"_links":{"first":{"href":"/discovery/v2/attractions.json?classificationName=Hip-Hop%2FRap&page=0&size=10"},"self":{"href":"/discovery/v2/attractions.json?size=10&classificationName=Hip-Hop%2FRap"},"next":{"href":"/discovery/v2/attractions.json?classificationName=Hip-Hop%2FRap&page=1&size=10"},"last":{"href":"/discovery/v2/attractions.json?classificationName=Hip-Hop%2FRap&page=875&size=10"}},"page":{"size":10,"totalElements":8754,"totalPages":876,"number":0}}